code140_main.vcd
$date
	Mon Jun  3 17:00:37 2019
$end
$version
	Icarus Verilog
$end
$timescale
	1s
$end
$scope module m_top $end
$scope module p $end
$var wire 1 ! w_clk $end
$var wire 1 " w_rst $end
$var wire 1 # w_taken $end
$var wire 32 $ w_tpc [31:0] $end
$var wire 5 % w_rt [4:0] $end
$var wire 32 & w_rslt2 [31:0] $end
$var wire 32 ' w_rslt [31:0] $end
$var wire 5 ( w_rs [4:0] $end
$var wire 32 ) w_rrt2 [31:0] $end
$var wire 32 * w_rrt [31:0] $end
$var wire 32 + w_rrs [31:0] $end
$var wire 5 , w_rd2 [4:0] $end
$var wire 5 - w_rd [4:0] $end
$var wire 32 . w_plus2_2 [31:0] $end
$var wire 32 / w_plus2_1 [31:0] $end
$var wire 32 0 w_plus1 [31:0] $end
$var wire 32 1 w_pc4 [31:0] $end
$var wire 6 2 w_op [5:0] $end
$var wire 32 3 w_imm32 [31:0] $end
$var wire 16 4 w_imm [15:0] $end
$var wire 32 5 MeWb_ldd [31:0] $end
$var wire 32 6 IfId_ir [31:0] $end
$var reg 6 7 ExMe_op [5:0] $end
$var reg 32 8 ExMe_pc [31:0] $end
$var reg 5 9 ExMe_rd2 [4:0] $end
$var reg 32 : ExMe_rrt [31:0] $end
$var reg 32 ; ExMe_rslt [31:0] $end
$var reg 1 < ExMe_w $end
$var reg 1 = ExMe_we $end
$var reg 6 > IdEx_op [5:0] $end
$var reg 32 ? IdEx_pc [31:0] $end
$var reg 5 @ IdEx_rd2 [4:0] $end
$var reg 32 A IdEx_rrs [31:0] $end
$var reg 32 B IdEx_rrt [31:0] $end
$var reg 32 C IdEx_rrt2 [31:0] $end
$var reg 6 D IdEx_rs [5:0] $end
$var reg 6 E IdEx_rt [5:0] $end
$var reg 1 F IdEx_w $end
$var reg 1 G IdEx_we $end
$var reg 32 H IfId_pc [31:0] $end
$var reg 32 I IfId_pc4 [31:0] $end
$var reg 5 J IfId_rd2 [4:0] $end
$var reg 1 K IfId_w $end
$var reg 1 L IfId_we $end
$var reg 6 M MeWb_op [5:0] $end
$var reg 32 N MeWb_pc [31:0] $end
$var reg 5 O MeWb_rd2 [4:0] $end
$var reg 32 P MeWb_rslt [31:0] $end
$var reg 1 Q MeWb_w $end
$var reg 1 R r_halt $end
$var reg 32 S r_pc [31:0] $end
$var reg 32 T r_rout [31:0] $end
$var reg 32 U r_tmp [31:0] $end
$scope module m_dmem $end
$var wire 12 V w_addr [11:0] $end
$var wire 1 ! w_clk $end
$var wire 32 W w_din [31:0] $end
$var wire 1 = w_we $end
$var reg 32 X r_dout [31:0] $end
$upscope $end
$scope module m_imem $end
$var wire 12 Y w_addr [11:0] $end
$var wire 1 ! w_clk $end
$var wire 32 Z w_din [31:0] $end
$var wire 1 [ w_we $end
$var reg 32 \ r_dout [31:0] $end
$upscope $end
$scope module m_regs $end
$var wire 1 ! w_clk $end
$var wire 5 ] w_rr1 [4:0] $end
$var wire 5 ^ w_rr2 [4:0] $end
$var wire 32 _ w_wdata [31:0] $end
$var wire 1 Q w_we $end
$var wire 5 ` w_wr [4:0] $end
$var wire 32 a w_rdata2 [31:0] $end
$var wire 32 b w_rdata1 [31:0] $end
$upscope $end
$upscope $end
$upscope $end
$enddefinitions $end
#0
$dumpvars
bx b
bx a
b0 `
b0 _
b0 ^
b0 ]
b0 \
0[
b0 Z
b0 Y
b0 X
b0 W
b0 V
b0 U
b0 T
b0 S
0R
0Q
b0 P
b0 O
b0 N
b0 M
0L
0K
b0 J
b0 I
b0 H
0G
0F
b0 E
b0 D
b0 C
b0 B
b0 A
b0 @
b0 ?
b0 >
0=
0<
b0 ;
b0 :
b0 9
b0 8
b0 7
b0 6
b0 5
b0 4
b0 3
b0 2
b100 1
b0 0
b0 /
b0 .
b0 -
b0 ,
bx +
bx *
bx )
b0 (
bx '
b0 &
b0 %
b0 $
0#
0"
0!
$end
#10
b0 '
#15
b0 )
b0 *
b0 a
b0 +
b0 b
#50
b10000000 $
b100000 3
b100000 4
b100000 6
b100000 \
b100000 5
b100000 X
1!
#53
b1 Y
b10000100 $
b100 I
b1000 1
b100 S
1F
#100
0!
#150
1!
#153
b10 Y
1<
b10001000 $
b1000 I
b100 H
b1100 1
b1000 S
#200
0!
#250
b1000 $
b10100 ,
b0 3
b0 4
b10100 %
b10100 ^
b1000 2
b100000000101000000000000000000 6
b100000000101000000000000000000 \
1!
#253
b11 Y
b1100 $
b1100 I
b1000 H
b10000 1
b1100 S
b100 ?
1Q
#265
bx *
bx a
#300
0!
#350
b1011 )
b111000 $
b10101 ,
b1011 3
b1011 4
b10101 %
b10101 ^
b100000000101010000000000001011 6
b100000000101010000000000001011 \
1!
#353
b100 Y
b100 8
bx B
b10100 @
b1000 >
b1000 ?
b111100 $
b10000 I
b1100 H
b10100 1
b10000 S
#400
0!
#450
b11000000010010000 $
b1100 ,
bx )
b110000000100000 3
b110000000100000 4
b1100 -
b0 %
b0 ^
b0 2
b110000000100000 6
b110000000100000 \
1!
#453
b1011 /
b101 Y
b1011 .
b11000000010010100 $
b10100 I
b10000 H
b11000 1
b10100 S
b1011 C
b10101 @
b1100 ?
bx :
bx W
b10100 9
b1000 7
b1000 8
b100 N
#463
b1011 '
#465
b0 )
b0 *
b0 a
#500
0!
#550
b10100 $
b1011 ,
b0 3
b0 4
b0 -
b1011 %
b1011 ^
b1000 2
b100000000010110000000000000000 6
b100000000010110000000000000000 \
1!
#553
b0 /
b10 V
b0 .
b110 Y
b10100 O
b10100 `
b1000 M
b1000 N
b1011 ;
b10101 9
b1100 8
b0 C
b0 B
b1100 @
b0 >
b10000 ?
b11000 $
b11000 I
b10100 H
b11100 1
b11000 S
#563
b0 '
#565
bx *
bx a
#600
0!
#650
b1000000000000 )
b100000000011000 $
b1000 ,
b1000000000000 3
b1000000000000 4
b10 -
b1000 %
b1000 ^
b100000000010000001000000000000 6
b100000000010000001000000000000 \
b100000000101000000000000000000 5
b100000000101000000000000000000 X
1!
#653
b111 Y
b0 V
b1011 &
b1011 _
b100000000011100 $
b11100 I
b11000 H
b100000 1
b11100 S
bx B
b1011 @
b1000 >
b10100 ?
b0 :
b0 W
b0 ;
b1100 9
b0 7
b10000 8
b10101 O
b10101 `
b1011 P
b1100 N
#700
0!
#750
b0 )
b11100 $
b1001 ,
b0 3
b0 4
b0 -
b1001 %
b1001 ^
b100000 5
b100000 X
b100000000010010000000000000000 6
b100000000010010000000000000000 \
1!
#753
b1000000000000 /
b0 &
b0 _
b1000000000000 .
b1000 Y
b1100 O
b1100 `
b0 M
b0 P
b10000 N
bx :
bx W
b1011 9
b1000 7
b10100 8
b1000000000000 C
b1000 @
b11000 ?
b100000 $
b100000 I
b11100 H
b100100 1
b100000 S
#763
b1000000000000 '
#800
0!
#850
b1010 ,
b1010 %
b1010 ^
b100000000010100000000000000000 6
b100000000010100000000000000000 \
1!
#853
b0 /
b1001 Y
b0 .
b10000000000 V
b100100 $
b100100 I
b100000 H
b101000 1
b100100 S
b0 C
b1001 @
b11100 ?
b1000000000000 ;
b1000 9
b11000 8
b1011 O
b1011 `
b1000 M
b10100 N
#863
b0 '
#900
0!
#950
b1011 ,
b1011 %
b1011 ^
b1010 (
b1010 ]
b101011 2
bx 5
bx X
b10101101010010110000000000000000 6
b10101101010010110000000000000000 \
1!
#953
b1000000000000 &
b1000000000000 _
b0 V
b1010 Y
b1000 O
b1000 `
b1000000000000 P
b11000 N
b0 ;
b1001 9
b11100 8
b1010 @
b100000 ?
b101000 $
b101000 I
b100100 H
b101100 1
b101000 S
#965
b0 *
b0 a
bx +
bx b
#1000
0!
#1050
b1 )
b101100 $
b1001 ,
b1 3
b1 4
b1001 %
b1001 ^
b1001 (
b1001 ]
b1000 2
b100001001010010000000000000001 6
b100001001010010000000000000001 \
b100000 5
b100000 X
1!
#1053
b0 0
b1011 Y
b0 &
b0 _
b110000 $
b101100 I
b101000 H
b110000 1
b101100 S
b1010 D
b0 B
bx A
1G
0F
b1011 @
b101011 >
b100100 ?
b1010 9
b100000 8
b1001 O
b1001 `
b0 P
b11100 N
#1068
b0 +
b0 b
#1100
0!
#1150
b1011 ,
b1011 %
b1011 ^
b1011 (
b1011 ]
b100001011010110000000000000001 6
b100001011010110000000000000001 \
1!
#1153
b1 /
b1 .
b1100 Y
b1010 O
b1010 `
b100000 N
b0 :
b0 W
1=
0<
b1011 9
b101011 7
b100100 8
b1001 D
b1 C
b0 A
0G
1F
b1001 @
b1000 >
b101000 ?
b110100 $
b110000 I
b101100 H
b110100 1
b110000 S
#1163
b1 '
#1200
0!
#1250
1!
#1253
b1101 Y
b111000 $
b110100 I
b110000 H
b111000 1
b110100 S
b1011 D
b1011 @
b101100 ?
b1 ;
0=
1<
b1001 9
b1000 7
b101000 8
0Q
b1011 O
b1011 `
b101011 M
b100100 N
#1300
0!
#1350
b0 5
b0 X
1!
#1353
b1 0
b1 &
b1 _
b1110 Y
1Q
b1001 O
b1001 `
b1000 M
b1 P
b101000 N
b1011 9
b101100 8
b110000 ?
b111100 $
b111000 I
b110100 H
b111100 1
b111000 S
#1363
b10 '
#1400
0!
#1450
1!
#1453
b1111 Y
b10 0
b1000000 $
b111100 I
b111000 H
b1000000 1
b111100 S
b110100 ?
b10 ;
b110000 8
b1011 O
b1011 `
b101100 N
#1463
b11 '
#1468
b1 +
b1 b
b1 *
b1 a
#1500
0!
#1550
b100 )
b1001100 $
b1010 ,
b100 3
b100 4
b1010 %
b1010 ^
b1010 (
b1010 ]
b100001010010100000000000000100 6
b100001010010100000000000000100 \
1!
#1553
b10 &
b10 _
b11 0
b10000 Y
b10 P
b110000 N
b11 ;
b110100 8
b1 B
b1 A
b111000 ?
b1010000 $
b1000000 I
b111100 H
b1000100 1
b1000000 S
#1563
b100 '
#1565
b0 *
b0 a
b0 +
b0 b
#1600
0!
#1650
b100000 $
b1001 ,
b0 )
b11111111111111111111111111111000 3
b1111111111111000 4
b11111 -
b1001 %
b1001 ^
b1000 (
b1000 ]
b101 2
b10101000010011111111111111000 6
b10101000010011111111111111000 \
1!
#1653
b100 /
b10001 Y
b100 .
b0 0
b1 V
b11 &
b11 _
b100100 $
b1000100 I
b1000000 H
b1001000 1
b1000100 S
b1010 D
b100 C
b0 B
b0 A
b1010 @
b111100 ?
b1 :
b1 W
b100 ;
b111000 8
b11 P
b110100 N
#1665
1#
b1 )
b1 *
b1 a
b1000000000000 +
b1000000000000 b
#1700
0!
#1750
0#
b11000100 $
b0 ,
b100000 3
b100000 4
b0 -
b0 %
b0 ^
b0 (
b0 ]
b0 2
b100000 5
b100000 X
b100000 6
b100000 \
1!
#1753
b1 /
b1000000000000 0
b100 &
b100 _
b1 .
b1001 Y
b100 P
b111000 N
b0 :
b0 W
b1010 9
b111100 8
b1000 D
b1 C
b1 B
b1000000000000 A
0F
b1001 @
b101 >
b1000000 ?
b11001000 $
b1001000 I
b1000100 H
b101000 1
b100100 S
#1763
b1000000000001 '
#1765
b0 )
b0 *
b0 a
b0 +
b0 b
#1800
0!
#1850
b1001000 $
b1011 ,
b0 3
b0 4
b1011 %
b1011 ^
b1010 (
b1010 ]
b101011 2
b10101101010010110000000000000000 6
b10101101010010110000000000000000 \
1!
#1853
b0 .
b0 /
b0 0
b1010 Y
b10000000000 V
b101000 $
b101000 I
b100100 H
b101100 1
b101000 S
b0 D
b0 C
b0 B
b0 A
1F
b0 @
b0 >
b1000100 ?
b1 :
b1 W
b1000000000001 ;
0<
b1001 9
b101 7
b1000000 8
b1010 O
b1010 `
b111100 N
#1863
b0 '
#1865
b100 *
b100 a
#1868
b100 +
b100 b
#1900
0!
#1950
b1 )
b101100 $
b1001 ,
b1 3
b1 4
b1001 %
b1001 ^
b1001 (
b1001 ]
b1000 2
bx 5
bx X
b100001001010010000000000000001 6
b100001001010010000000000000001 \
1!
#1953
b100 0
b1000000000001 &
b1000000000001 _
b0 V
b1011 Y
0Q
b1001 O
b1001 `
b101 M
b1000000000001 P
b1000000 N
b0 :
b0 W
b0 ;
1<
b0 9
b0 7
b1000100 8
b1010 D
b100 B
b100 A
1G
0F
b1011 @
b101011 >
b100100 ?
b110000 $
b101100 I
b101000 H
b110000 1
b101100 S
#1963
b100 '
#1965
b1 +
b1 b
b1 *
b1 a
#2000
0!
#2050
b1011 ,
b1011 %
b1011 ^
b1011 (
b1011 ]
b100001011010110000000000000001 6
b100001011010110000000000000001 \
b0 5
b0 X
1!
#2053
b1 /
b1 0
b1100 Y
b1 V
b1 .
b0 &
b0 _
b110100 $
b110000 I
b101100 H
b110100 1
b110000 S
b1001 D
b1 C
b1 B
b1 A
0G
1F
b1001 @
b1000 >
b101000 ?
b100 :
b100 W
b100 ;
1=
0<
b1011 9
b101011 7
b100100 8
1Q
b0 O
b0 `
b0 M
b0 P
b1000100 N
#2063
b10 '
#2065
b100 *
b100 a
b100 +
b100 b
#2100
0!
#2150
b100000 5
b100000 X
1!
#2153
b100 0
b100 &
b100 _
b0 V
b1101 Y
0Q
b1011 O
b1011 `
b101011 M
b100 P
b100100 N
b1 :
b1 W
b10 ;
0=
1<
b1001 9
b1000 7
b101000 8
b1011 D
b100 B
b100 A
b1011 @
b101100 ?
b111000 $
b110100 I
b110000 H
b111000 1
b110100 S
#2163
b101 '
#2200
0!
#2250
b0 5
b0 X
1!
#2253
b101 0
b1110 Y
b1 V
b10 &
b10 _
b111100 $
b111000 I
b110100 H
b111100 1
b111000 S
b110000 ?
b100 :
b100 W
b101 ;
b1011 9
b101100 8
1Q
b1001 O
b1001 `
b1000 M
b10 P
b101000 N
#2263
b110 '
#2300
0!
#2350
b100 5
b100 X
1!
#2353
b101 &
b101 _
b110 0
b1111 Y
b1011 O
b1011 `
b101 P
b101100 N
b110 ;
b110000 8
b110100 ?
b1000000 $
b111100 I
b111000 H
b1000000 1
b111100 S
#2363
b111 '
#2368
b101 +
b101 b
b101 *
b101 a
#2400
0!
#2450
b100 )
b1001100 $
b1010 ,
b100 3
b100 4
b1010 %
b1010 ^
b1010 (
b1010 ]
b100001010010100000000000000100 6
b100001010010100000000000000100 \
1!
#2453
b10000 Y
b111 0
b110 &
b110 _
b1010000 $
b1000000 I
b111100 H
b1000100 1
b1000000 S
b101 B
b101 A
b111000 ?
b111 ;
b110100 8
b110 P
b110000 N
#2463
b1000 '
#2465
b100 *
b100 a
b100 +
b100 b
#2500
0!
#2550
b100000 $
b1001 ,
b11111111111111111111111111111000 3
b1111111111111000 4
b11111 -
b1001 %
b1001 ^
b1000 (
b1000 ]
b101 2
b10101000010011111111111111000 6
b10101000010011111111111111000 \
1!
#2553
b100 /
b111 &
b111 _
b100 0
b10 V
b100 .
b10001 Y
b111 P
b110100 N
b101 :
b101 W
b1000 ;
b111000 8
b1010 D
b100 C
b100 B
b100 A
b1010 @
b111100 ?
b100100 $
b1000100 I
b1000000 H
b1001000 1
b1000100 S
#2565
1#
b10 )
b10 *
b10 a
b1000000000000 +
b1000000000000 b
#2600
0!
#2650
0#
b11000100 $
b0 ,
b100000 3
b100000 4
b0 -
b0 %
b0 ^
b0 (
b0 ]
b0 2
b100000 6
b100000 \
b100000000101000000000000000000 5
b100000000101000000000000000000 X
1!
#2653
b10 /
b1000000000000 0
b1001 Y
b10 .
b1000 &
b1000 _
b11001000 $
b1001000 I
b1000100 H
b101000 1
b100100 S
b1000 D
b10 C
b10 B
b1000000000000 A
0F
b1001 @
b101 >
b1000000 ?
b100 :
b100 W
b1010 9
b111100 8
b1000 P
b111000 N
#2663
b1000000000010 '
#2665
b0 )
b0 *
b0 a
b0 +
b0 b
#2700
0!
#2750
b1001000 $
b1011 ,
b0 3
b0 4
b1011 %
b1011 ^
b1010 (
b1010 ]
b101011 2
b10101101010010110000000000000000 6
b10101101010010110000000000000000 \
1!
#2753
b0 .
b0 /
b0 0
b10000000000 V
b1010 Y
b1010 O
b1010 `
b111100 N
b10 :
b10 W
b1000000000010 ;
0<
b1001 9
b101 7
b1000000 8
b0 D
b0 C
b0 B
b0 A
1F
b0 @
b0 >
b1000100 ?
b101000 $
b101000 I
b100100 H
b101100 1
b101000 S
#2763
b0 '
#2765
b1000 *
b1000 a
#2768
b1000 +
b1000 b
#2800
0!
#2850
b1 )
b101100 $
b1001 ,
b1 3
b1 4
b1001 %
b1001 ^
b1001 (
b1001 ]
b1000 2
b100001001010010000000000000001 6
b100001001010010000000000000001 \
bx 5
bx X
1!
#2853
b1000 0
b1011 Y
b0 V
b1000000000010 &
b1000000000010 _
b110000 $
b101100 I
b101000 H
b110000 1
b101100 S
b1010 D
b1000 B
b1000 A
1G
0F
b1011 @
b101011 >
b100100 ?
b0 :
b0 W
b0 ;
1<
b0 9
b0 7
b1000100 8
0Q
b1001 O
b1001 `
b101 M
b1000000000010 P
b1000000 N
#2863
b1000 '
#2865
b10 +
b10 b
b10 *
b10 a
#2900
0!
#2950
b1011 ,
b1011 %
b1011 ^
b1011 (
b1011 ]
b0 5
b0 X
b100001011010110000000000000001 6
b100001011010110000000000000001 \
1!
#2953
b1 /
b10 0
b0 &
b0 _
b10 V
b1 .
b1100 Y
1Q
b0 O
b0 `
b0 M
b0 P
b1000100 N
b1000 :
b1000 W
b1000 ;
1=
0<
b1011 9
b101011 7
b100100 8
b1001 D
b1 C
b10 B
b10 A
0G
1F
b1001 @
b1000 >
b101000 ?
b110100 $
b110000 I
b101100 H
b110100 1
b110000 S
#2963
b11 '
#2965
b1000 *
b1000 a
b1000 +
b1000 b
#3000
0!
#3050
b100000000101000000000000000000 5
b100000000101000000000000000000 X
1!
#3053
b1000 0
b1101 Y
b0 V
b1000 &
b1000 _
b111000 $
b110100 I
b110000 H
b111000 1
b110100 S
b1011 D
b1000 B
b1000 A
b1011 @
b101100 ?
b10 :
b10 W
b11 ;
0=
1<
b1001 9
b1000 7
b101000 8
0Q
b1011 O
b1011 `
b101011 M
b1000 P
b100100 N
#3063
b1001 '
#3100
0!
#3150
b0 5
b0 X
1!
#3153
b1001 0
b11 &
b11 _
b10 V
b1110 Y
1Q
b1001 O
b1001 `
b1000 M
b11 P
b101000 N
b1000 :
b1000 W
b1001 ;
b1011 9
b101100 8
b110000 ?
b111100 $
b111000 I
b110100 H
b111100 1
b111000 S
#3163
b1010 '
#3200
0!
#3250
b1000 5
b1000 X
1!
#3253
b1111 Y
b1010 0
b1001 &
b1001 _
b1000000 $
b111100 I
b111000 H
b1000000 1
b111100 S
b110100 ?
b1010 ;
b110000 8
b1011 O
b1011 `
b1001 P
b101100 N
#3263
b1011 '
#3268
b1001 +
b1001 b
b1001 *
b1001 a
#3300
0!
#3350
b100 )
b1001100 $
b1010 ,
b100 3
b100 4
b1010 %
b1010 ^
b1010 (
b1010 ]
b100001010010100000000000000100 6
b100001010010100000000000000100 \
1!
#3353
b1010 &
b1010 _
b1011 0
b10000 Y
b1010 P
b110000 N
b1011 ;
b110100 8
b1001 B
b1001 A
b111000 ?
b1010000 $
b1000000 I
b111100 H
b1000100 1
b1000000 S
#3363
b1100 '
#3365
b1000 *
b1000 a
b1000 +
b1000 b
#3400
0!
#3450
b100000 $
b1001 ,
b1000 )
b11111111111111111111111111111000 3
b1111111111111000 4
b11111 -
b1001 %
b1001 ^
b1000 (
b1000 ]
b101 2
b10101000010011111111111111000 6
b10101000010011111111111111000 \
1!
#3453
b100 /
b10001 Y
b100 .
b1000 0
b11 V
b1011 &
b1011 _
b100100 $
b1000100 I
b1000000 H
b1001000 1
b1000100 S
b1010 D
b100 C
b1000 B
b1000 A
b1010 @
b111100 ?
b1001 :
b1001 W
b1100 ;
b111000 8
b1011 P
b110100 N
#3465
1#
b11 )
b11 *
b11 a
b1000000000000 +
b1000000000000 b
#3500
0!
#3550
0#
b11000100 $
b0 ,
b100000 3
b100000 4
b0 -
b0 %
b0 ^
b0 (
b0 ]
b0 2
b100000000101010000000000001011 5
b100000000101010000000000001011 X
b100000 6
b100000 \
1!
#3553
b11 /
b1000000000000 0
b1100 &
b1100 _
b11 .
b1001 Y
b1100 P
b111000 N
b1000 :
b1000 W
b1010 9
b111100 8
b1000 D
b11 C
b11 B
b1000000000000 A
0F
b1001 @
b101 >
b1000000 ?
b11001000 $
b1001000 I
b1000100 H
b101000 1
b100100 S
#3563
b1000000000011 '
#3565
b0 )
b0 *
b0 a
b0 +
b0 b
#3600
0!
#3650
b1001000 $
b1011 ,
b0 3
b0 4
b1011 %
b1011 ^
b1010 (
b1010 ]
b101011 2
b10101101010010110000000000000000 6
b10101101010010110000000000000000 \
1!
#3653
b0 .
b0 /
b0 0
b1010 Y
b10000000000 V
b101000 $
b101000 I
b100100 H
b101100 1
b101000 S
b0 D
b0 C
b0 B
b0 A
1F
b0 @
b0 >
b1000100 ?
b11 :
b11 W
b1000000000011 ;
0<
b1001 9
b101 7
b1000000 8
b1010 O
b1010 `
b111100 N
#3663
b0 '
#3665
b1100 *
b1100 a
#3668
b1100 +
b1100 b
#3700
0!
#3750
b1 )
b101100 $
b1001 ,
b1 3
b1 4
b1001 %
b1001 ^
b1001 (
b1001 ]
b1000 2
bx 5
bx X
b100001001010010000000000000001 6
b100001001010010000000000000001 \
1!
#3753
b1100 0
b1000000000011 &
b1000000000011 _
b0 V
b1011 Y
0Q
b1001 O
b1001 `
b101 M
b1000000000011 P
b1000000 N
b0 :
b0 W
b0 ;
1<
b0 9
b0 7
b1000100 8
b1010 D
b1100 B
b1100 A
1G
0F
b1011 @
b101011 >
b100100 ?
b110000 $
b101100 I
b101000 H
b110000 1
b101100 S
#3763
b1100 '
#3765
b11 +
b11 b
b11 *
b11 a
#3800
0!
#3850
b1011 ,
b1011 %
b1011 ^
b1011 (
b1011 ]
b100001011010110000000000000001 6
b100001011010110000000000000001 \
b0 5
b0 X
1!
#3853
b1 /
b11 0
b1100 Y
b11 V
b1 .
b0 &
b0 _
b110100 $
b110000 I
b101100 H
b110100 1
b110000 S
b1001 D
b1 C
b11 B
b11 A
0G
1F
b1001 @
b1000 >
b101000 ?
b1100 :
b1100 W
b1100 ;
1=
0<
b1011 9
b101011 7
b100100 8
1Q
b0 O
b0 `
b0 M
b0 P
b1000100 N
#3863
b100 '
#3865
b1100 *
b1100 a
b1100 +
b1100 b
#3900
0!
#3950
b100000000101010000000000001011 5
b100000000101010000000000001011 X
1!
#3953
b1100 0
b1100 &
b1100 _
b1 V
b1101 Y
0Q
b1011 O
b1011 `
b101011 M
b1100 P
b100100 N
b11 :
b11 W
b100 ;
0=
1<
b1001 9
b1000 7
b101000 8
b1011 D
b1100 B
b1100 A
b1011 @
b101100 ?
b111000 $
b110100 I
b110000 H
b111000 1
b110100 S
#3963
b1101 '
#4000
0!
#4050
b100 5
b100 X
1!
#4053
b1101 0
b1110 Y
b11 V
b100 &
b100 _
b111100 $
b111000 I
b110100 H
b111100 1
b111000 S
b110000 ?
b1100 :
b1100 W
b1101 ;
b1011 9
b101100 8
1Q
b1001 O
b1001 `
b1000 M
b100 P
b101000 N
#4063
b1110 '
#4100
0!
#4150
b1100 5
b1100 X
1!
#4153
b1101 &
b1101 _
b1110 0
b1111 Y
b1011 O
b1011 `
b1101 P
b101100 N
b1110 ;
b110000 8
b110100 ?
b1000000 $
b111100 I
b111000 H
b1000000 1
b111100 S
#4163
b1111 '
#4168
b1101 +
b1101 b
b1101 *
b1101 a
#4200
0!
#4250
b100 )
b1001100 $
b1010 ,
b100 3
b100 4
b1010 %
b1010 ^
b1010 (
b1010 ]
b100001010010100000000000000100 6
b100001010010100000000000000100 \
1!
#4253
b10000 Y
b1111 0
b1110 &
b1110 _
b1010000 $
b1000000 I
b111100 H
b1000100 1
b1000000 S
b1101 B
b1101 A
b111000 ?
b1111 ;
b110100 8
b1110 P
b110000 N
#4263
b10000 '
#4265
b1100 *
b1100 a
b1100 +
b1100 b
#4300
0!
#4350
b100000 $
b1001 ,
b1100 )
b11111111111111111111111111111000 3
b1111111111111000 4
b11111 -
b1001 %
b1001 ^
b1000 (
b1000 ]
b101 2
b10101000010011111111111111000 6
b10101000010011111111111111000 \
1!
#4353
b100 /
b1111 &
b1111 _
b1100 0
b100 V
b100 .
b10001 Y
b1111 P
b110100 N
b1101 :
b1101 W
b10000 ;
b111000 8
b1010 D
b100 C
b1100 B
b1100 A
b1010 @
b111100 ?
b100100 $
b1000100 I
b1000000 H
b1001000 1
b1000100 S
#4365
1#
b100 )
b100 *
b100 a
b1000000000000 +
b1000000000000 b
#4400
0!
#4450
0#
b11000100 $
b0 ,
b100000 3
b100000 4
b0 -
b0 %
b0 ^
b0 (
b0 ]
b0 2
b100000 6
b100000 \
b110000000100000 5
b110000000100000 X
1!
#4453
b1000000000000 0
b1001 Y
b10000 &
b10000 _
b11001000 $
b1001000 I
b1000100 H
b101000 1
b100100 S
b1000 D
b100 B
b1000000000000 A
0F
b1001 @
b101 >
b1000000 ?
b1100 :
b1100 W
b1010 9
b111100 8
b10000 P
b111000 N
#4463
b1000000000100 '
#4465
b0 )
b0 *
b0 a
b0 +
b0 b
#4500
0!
#4550
b1001000 $
b1011 ,
b0 3
b0 4
b1011 %
b1011 ^
b1010 (
b1010 ]
b101011 2
b10101101010010110000000000000000 6
b10101101010010110000000000000000 \
1!
#4553
b0 .
b0 /
b0 0
b10000000001 V
b1010 Y
b1010 O
b1010 `
b111100 N
b100 :
b100 W
b1000000000100 ;
0<
b1001 9
b101 7
b1000000 8
b0 D
b0 C
b0 B
b0 A
1F
b0 @
b0 >
b1000100 ?
b101000 $
b101000 I
b100100 H
b101100 1
b101000 S
#4563
b0 '
#4565
b10000 *
b10000 a
#4568
b10000 +
b10000 b
#4600
0!
#4650
b1 )
b101100 $
b1001 ,
b1 3
b1 4
b1001 %
b1001 ^
b1001 (
b1001 ]
b1000 2
b100001001010010000000000000001 6
b100001001010010000000000000001 \
bx 5
bx X
1!
#4653
b10000 0
b1011 Y
b0 V
b1000000000100 &
b1000000000100 _
b110000 $
b101100 I
b101000 H
b110000 1
b101100 S
b1010 D
b10000 B
b10000 A
1G
0F
b1011 @
b101011 >
b100100 ?
b0 :
b0 W
b0 ;
1<
b0 9
b0 7
b1000100 8
0Q
b1001 O
b1001 `
b101 M
b1000000000100 P
b1000000 N
#4663
b10000 '
#4665
b100 +
b100 b
b100 *
b100 a
#4700
0!
#4750
b1011 ,
b1011 %
b1011 ^
b1011 (
b1011 ]
b0 5
b0 X
b100001011010110000000000000001 6
b100001011010110000000000000001 \
1!
#4753
b1 /
b100 0
b0 &
b0 _
b100 V
b1 .
b1100 Y
1Q
b0 O
b0 `
b0 M
b0 P
b1000100 N
b10000 :
b10000 W
b10000 ;
1=
0<
b1011 9
b101011 7
b100100 8
b1001 D
b1 C
b100 B
b100 A
0G
1F
b1001 @
b1000 >
b101000 ?
b110100 $
b110000 I
b101100 H
b110100 1
b110000 S
#4763
b101 '
#4765
b10000 *
b10000 a
b10000 +
b10000 b
#4800
0!
#4850
b110000000100000 5
b110000000100000 X
1!
#4853
b10000 0
b1101 Y
b1 V
b10000 &
b10000 _
b111000 $
b110100 I
b110000 H
b111000 1
b110100 S
b1011 D
b10000 B
b10000 A
b1011 @
b101100 ?
b100 :
b100 W
b101 ;
0=
1<
b1001 9
b1000 7
b101000 8
0Q
b1011 O
b1011 `
b101011 M
b10000 P
b100100 N
#4863
b10001 '
#4900
0!
#4950
b100 5
b100 X
1!
#4953
b10001 0
b101 &
b101 _
b100 V
b1110 Y
1Q
b1001 O
b1001 `
b1000 M
b101 P
b101000 N
b10000 :
b10000 W
b10001 ;
b1011 9
b101100 8
b110000 ?
b111100 $
b111000 I
b110100 H
b111100 1
b111000 S
#4963
b10010 '
#5000
0!
#5050
b10000 5
b10000 X
1!
#5053
b1111 Y
b10010 0
b10001 &
b10001 _
b1000000 $
b111100 I
b111000 H
b1000000 1
b111100 S
b110100 ?
b10010 ;
b110000 8
b1011 O
b1011 `
b10001 P
b101100 N
#5063
b10011 '
#5068
b10001 +
b10001 b
b10001 *
b10001 a
#5100
0!
#5150
b100 )
b1001100 $
b1010 ,
b100 3
b100 4
b1010 %
b1010 ^
b1010 (
b1010 ]
b100001010010100000000000000100 6
b100001010010100000000000000100 \
1!
#5153
b10010 &
b10010 _
b10011 0
b10000 Y
b10010 P
b110000 N
b10011 ;
b110100 8
b10001 B
b10001 A
b111000 ?
b1010000 $
b1000000 I
b111100 H
b1000100 1
b1000000 S
#5163
b10100 '
#5165
b10000 *
b10000 a
b10000 +
b10000 b
#5200
0!
#5250
b100000 $
b1001 ,
b10000 )
b11111111111111111111111111111000 3
b1111111111111000 4
b11111 -
b1001 %
b1001 ^
b1000 (
b1000 ]
b101 2
b10101000010011111111111111000 6
b10101000010011111111111111000 \
1!
#5253
b100 /
b10001 Y
b100 .
b10000 0
b101 V
b10011 &
b10011 _
b100100 $
b1000100 I
b1000000 H
b1001000 1
b1000100 S
b1010 D
b100 C
b10000 B
b10000 A
b1010 @
b111100 ?
b10001 :
b10001 W
b10100 ;
b111000 8
b10011 P
b110100 N
#5265
1#
b101 )
b101 *
b101 a
b1000000000000 +
b1000000000000 b
#5300
0!
#5350
0#
b11000100 $
b0 ,
b100000 3
b100000 4
b0 -
b0 %
b0 ^
b0 (
b0 ]
b0 2
b100000000010110000000000000000 5
b100000000010110000000000000000 X
b100000 6
b100000 \
1!
#5353
b101 /
b1000000000000 0
b10100 &
b10100 _
b101 .
b1001 Y
b10100 P
b111000 N
b10000 :
b10000 W
b1010 9
b111100 8
b1000 D
b101 C
b101 B
b1000000000000 A
0F
b1001 @
b101 >
b1000000 ?
b11001000 $
b1001000 I
b1000100 H
b101000 1
b100100 S
#5363
b1000000000101 '
#5365
b0 )
b0 *
b0 a
b0 +
b0 b
#5400
0!
